[
	{
		"ubiNum2": 1,
		"number_to_words_result": "one"
	},
	{
		"ubiNum2": 2,
		"number_to_words_result": "two"
	},
	{
		"ubiNum2": 3,
		"number_to_words_result": "three"
	},
	{
		"ubiNum2": 4,
		"number_to_words_result": "four"
	},
	{
		"ubiNum2": 5,
		"number_to_words_result": "five"
	}
]