{
	"info": {
		"_postman_id": "82f2f5b9-27b5-4632-9b69-e795a5fa620e",
		"name": "NumberConversion",
		"schema": "https://schema.getpostman.com/json/collection/v2.1.0/collection.json"
	},
	"item": [
		{
			"name": "NumberToWords",
			"event": [
				{
					"listen": "test",
					"script": {
						"exec": [
							"pm.test(\"Successful POST request\", function () {\r",
							"    pm.expect(pm.response.code).to.be.oneOf([200]);\r",
							"});\r",
							"\r",
							"var response_json = xml2Json(responseBody);\r",
							"var number_to_words_response = response_json[\"soap:Envelope\"][\"soap:Body\"][\"m:NumberToWordsResponse\"][\"m:NumberToWordsResult\"]\r",
							"/*Sprawdzenie odpowiedzi usługi*/\r",
							"pm.test(\"Sprawdzenie wartosci dla liczby: \" + pm.environment.get(\"ubiNum\"), () => {\r",
							"  pm.expect(number_to_words_response).to.eql(pm.environment.get(\"number_to_words_result\"));\r",
							"});\r",
							""
						],
						"type": "text/javascript"
					}
				}
			],
			"protocolProfileBehavior": {
				"disabledSystemHeaders": {
					"content-type": true
				}
			},
			"request": {
				"method": "POST",
				"header": [
					{
						"key": "Content-Type",
						"value": "text/xml",
						"type": "text"
					}
				],
				"body": {
					"mode": "raw",
					"raw": "<?xml version=\"1.0\" encoding=\"utf-8\"?>\r\n<soap:Envelope xmlns:soap=\"http://schemas.xmlsoap.org/soap/envelope/\">\r\n  <soap:Body>\r\n    <NumberToWords xmlns=\"http://www.dataaccess.com/webservicesserver/\">\r\n      <ubiNum>{{ubiNum}}</ubiNum>\r\n    </NumberToWords>\r\n  </soap:Body>\r\n</soap:Envelope>",
					"options": {
						"raw": {
							"language": "xml"
						}
					}
				},
				"url": {
					"raw": "{{uri}}?op=NumberToWords",
					"host": [
						"{{uri}}"
					],
					"query": [
						{
							"key": "op",
							"value": "NumberToWords"
						}
					]
				}
			},
			"response": []
		},
		{
			"name": "NumberToDollars",
			"event": [
				{
					"listen": "test",
					"script": {
						"exec": [
							"pm.test(\"Successful POST request\", function () {\r",
							"    pm.expect(pm.response.code).to.be.oneOf([200]);\r",
							"});"
						],
						"type": "text/javascript"
					}
				}
			],
			"protocolProfileBehavior": {
				"disabledSystemHeaders": {
					"content-type": true
				}
			},
			"request": {
				"method": "POST",
				"header": [
					{
						"key": "Content-Type",
						"value": "text/xml",
						"type": "text"
					}
				],
				"body": {
					"mode": "raw",
					"raw": "<?xml version=\"1.0\" encoding=\"utf-8\"?>\r\n<soap:Envelope xmlns:soap=\"http://schemas.xmlsoap.org/soap/envelope/\">\r\n  <soap:Body>\r\n    <NumberToDollars xmlns=\"http://www.dataaccess.com/webservicesserver/\">\r\n      <dNum>{{dNum}}</dNum>\r\n    </NumberToDollars>\r\n  </soap:Body>\r\n</soap:Envelope>",
					"options": {
						"raw": {
							"language": "xml"
						}
					}
				},
				"url": {
					"raw": "{{uri}}?op=NumberToDollars",
					"host": [
						"{{uri}}"
					],
					"query": [
						{
							"key": "op",
							"value": "NumberToDollars"
						}
					]
				}
			},
			"response": []
		}
	]
}